db.awards.find({"_id": LUUID("1a4de21b5341d1374b6eae98fbc4c994")});

db.awards.find({"_id": LUUID("a0abf8227abe45f1ba89a53adc156740")});
                              
db.awards.find();

var foo = BinData(3, "Gk3iG1NB0TdLbq6Y+8TJlA==")
foo.hex()
